5 Efficacy table – R for Clinical Study Reports and Submission
…
ana <- gluc %>%
  filter(AVISITN > 0 & AVISITN <= 24) %>%
  arrange(AVISITN) %>%
  mutate(AVISIT = factor(AVISIT, levels = unique(AVISIT)))

Below is the first few records of the analysis dataset.

AVAL: analysis value

BASE: baseline value

CHG: change from baseline

ana %>% select(USUBJID, TRTPN, AVISIT, AVAL, BASE, CHG)
#> # A tibble: 1,377 × 6
#>   USUBJID     TRTPN AVISIT              AVAL  BASE     CHG
#>   <chr>       <dbl> <fct>              <dbl> <dbl>   <dbl>
#> 1 01-701-1015     0 "          Week 2"  4.66  4.72 -0.0555
#> 2 01-701-1023     0 "          Week 2"  5.77  5.33  0.444 
#> 3 01-701-1047     0 "          Week 2"  5.55  5.55  0     
#> 4 01-701-1118     0 "          Week 2"  4.88  4.05  0.833 
#> # ℹ 1,373 more rows
…
t12
#> # A tibble: 3 × 4
#> # Groups:   TRTPN [3]
#>   TRTPN AVISITN n_chg mean_chg       
#>   <dbl>   <dbl> <int> <chr>          
#> 1     0      24    57 " -0.1 ( 2.68)"
#> 2    54      24    26 "  0.2 ( 0.82)"
#> 3    81      24    30 "  0.5 ( 1.94)"

5.4 Missing data imputation

In clinical trials, missing data is inevitable. In this study, there are missing values in glucose data.

count(ana, AVISIT)
#> # A tibble: 8 × 2
#>   AVISIT                 n
#>   <fct>              <int>
#> 1 "          Week 2"   229
#> 2 "          Week 4"   211
#> 3 "          Week 6"   197
#> 4 "          Week 8"   187
#> # ℹ 4 more rows
…
