R for Clinical Study Reports and Submission - 1 Overview
…
To manipulate the data and create a data frame containing the necessary information for the RTF table, we can use the dplyr and tidyr packages within the tidyverse.

tbl <- r2rtf_adae %>%
  count(TRTA, AEDECOD) %>%
  pivot_wider(names_from = TRTA, values_from = n, values_fill = 0)

tbl
#> # A tibble: 242 × 4
#>   AEDECOD        Placebo `Xanomeline High Dose` `Xanomeline Low Dose`
#>   <chr>            <int>                  <int>                 <int>
#> 1 ABDOMINAL PAIN       1                      2                     3
#> 2 AGITATION            2                      1                     2
#> 3 ALOPECIA             1                      0                     0
#> 4 ANXIETY              2                      0                     4
#> # ℹ 238 more rows
…
