R for Clinical Study Reports and Submission - 8 Specific AE
…
ana <- adae %>%
  mutate(
    AESOC = tools::toTitleCase(tolower(AESOC)),
    AEDECOD = tools::toTitleCase(tolower(AEDECOD))
  )

t1 <- ana %>%
  group_by(TRTAN, AESOC) %>%
  summarise(n = fmt_num(n_distinct(USUBJID), digits = 0)) %>%
  mutate(AEDECOD = AESOC, order = 0)

t1
#> # A tibble: 61 × 5
#> # Groups:   TRTAN [3]
#>    TRTAN AESOC                                               n     AEDECOD order
#>    <dbl> <chr>                                               <chr> <chr>   <dbl>
#>  1     0 Cardiac Disorders                                   "  1… Cardia…     0
#>  2     0 Ear and Labyrinth Disorders                         "   … Ear an…     0
#>  3     0 Eye Disorders                                       "   … Eye Di…     0
#>  4     0 Gastrointestinal Disorders                          "  1… Gastro…     0
#>  5     0 General Disorders and Administration Site Conditio… "  2… Genera…     0
#>  6     0 Hepatobiliary Disorders                             "   … Hepato…     0
#>  7     0 Infections and Infestations                         "  1… Infect…     0
#>  8     0 Injury, Poisoning and Procedural Complications      "   … Injury…     0
#>  9     0 Investigations                                      "  1… Invest…     0
#> 10     0 Metabolism and Nutrition Disorders                  "   … Metabo…     0
#> # ℹ 51 more rows

In the code below, we count the number of subjects in each AE term by SOC, AE term, and treatment arm. Here we also create a new variable order and set it as 1.

t2 <- ana %>%
  group_by(TRTAN, AESOC, AEDECOD) %>%
  summarise(n = fmt_num(n_distinct(USUBJID), digits = 0)) %>%
  mutate(order = 1)

t2
#> # A tibble: 373 × 5
#> # Groups:   TRTAN, AESOC [61]
#>    TRTAN AESOC             AEDECOD                              n      order
#>    <dbl> <chr>             <chr>                                <chr>  <dbl>
#>  1     0 Cardiac Disorders Atrial Fibrillation                  "   1"     1
#>  2     0 Cardiac Disorders Atrial Hypertrophy                   "   1"     1
#>  3     0 Cardiac Disorders Atrioventricular Block First Degree  "   1"     1
#>  4     0 Cardiac Disorders Atrioventricular Block Second Degree "   2"     1
#>  5     0 Cardiac Disorders Bradycardia                          "   1"     1
#>  6     0 Cardiac Disorders Bundle Branch Block Left             "   1"     1
#>  7     0 Cardiac Disorders Bundle Branch Block Right            "   1"     1
#>  8     0 Cardiac Disorders Cardiac Failure Congestive           "   1"     1
#>  9     0 Cardiac Disorders Myocardial Infarction                "   4"     1
#> 10     0 Cardiac Disorders Sinus Arrhythmia                     "   1"     1
#> # ℹ 363 more rows
We prepare reporting data for AE information using code below:

t_ae <- bind_rows(t1, t2) %>%
  pivot_wider(
    id_cols = c(AESOC, order, AEDECOD),
    names_from = TRTAN,
    names_prefix = "n_",
    values_from = n,
    values_fill = fmt_num(0, digits = 0)
  ) %>%
  arrange(AESOC, order, AEDECOD) %>%
  select(AESOC, AEDECOD, starts_with("n"))

t_ae
#> # A tibble: 265 × 5
#>   AESOC             AEDECOD             n_0    n_54   n_81  
#>   <chr>             <chr>               <chr>  <chr>  <chr> 
#> 1 Cardiac Disorders Cardiac Disorders   "  13" "  13" "  18"
#> 2 Cardiac Disorders Atrial Fibrillation "   1" "   1" "   3"
#> 3 Cardiac Disorders Atrial Flutter      "   0" "   1" "   1"
#> 4 Cardiac Disorders Atrial Hypertrophy  "   1" "   0" "   0"
#> # ℹ 261 more rows
…
The final report data is saved in tbl_ae_spec. We also add a blank row between population and AE information in the reporting table.

tbl_ae_spec <- bind_rows(
  t_pop,
  data.frame(AESOC = "pop"),
  t_ae
) %>%
  mutate(AEDECOD = ifelse(AEDECOD == AESOC,
    AEDECOD, paste0("  ", AEDECOD)
  ))

tbl_ae_spec
#> # A tibble: 267 × 5
#>   AESOC             AEDECOD                        n_0    n_54   n_81  
#>   <chr>             <chr>                          <chr>  <chr>  <chr> 
#> 1 pop               "  Participants in population" "  86" "  84" "  84"
#> 2 pop                <NA>                           <NA>   <NA>   <NA> 
#> 3 Cardiac Disorders "Cardiac Disorders"            "  13" "  13" "  18"
#> 4 Cardiac Disorders "  Atrial Fibrillation"        "   1" "   1" "   3"
#> # ℹ 263 more rows
…
